…
For each (airport, day) contruct a tidy data set of the airport’s
“performance” as the proportion of flights that departed less than an
hour late.

``` r
flights %>%
  mutate(day_of_year = yday(time_hour)) %>%
  group_by(origin, day_of_year)%>%
  mutate(performance = dep_time - sched_dep_time)%>%
  filter(performance< 60 & performance >0)%>%
  select(origin, day_of_year, performance)
```

    ## # A tibble: 81,110 x 3
    ## # Groups:   origin, day_of_year [1,095]
    ##    origin day_of_year performance
    ##    <chr>        <dbl>       <int>
    ##  1 EWR              1           2
    ##  2 LGA              1           4
    ##  3 JFK              1           2
    ##  4 EWR              1           1
    ##  5 EWR              1           8
    ##  6 JFK              1          11
    ##  7 JFK              1           3
    ##  8 LGA              1          13
    ##  9 EWR              1          24
    ## 10 EWR              1           8
    ## # ... with 81,100 more rows

Construct a tidy data set to that give weather summaries for each
(airport, day). Use the total precipitation, minimum visibility, maximum
wind\_gust, and average wind\_speed.

``` r
weather %>%
  mutate(day_of_year = yday(time_hour))%>%
  group_by(origin, day_of_year)%>%
  summarize(minimum_visibility = min(visib), avg_wind_speed = mean(wind_speed))
```

    ## # A tibble: 1,092 x 4
    ## # Groups:   origin [3]
    ##    origin day_of_year minimum_visibility avg_wind_speed
    ##    <chr>        <dbl>              <dbl>          <dbl>
    ##  1 EWR              1                 10          13.2 
    ##  2 EWR              2                 10          10.9 
    ##  3 EWR              3                 10           8.58
    ##  4 EWR              4                 10          14.0 
    ##  5 EWR              5                 10           9.40
    ##  6 EWR              6                  6           9.11
    ##  7 EWR              7                 10           7.34
    ##  8 EWR              8                  8           7.19
    ##  9 EWR              9                  6           5.99
    ## 10 EWR             10                 10           8.92
    ## # ... with 1,082 more rows
…
